(Z Axis Settings)
(  High     Up        Down     Drill)
(10.0000 	2.9990  	-0.4000 	-1.0000 )
G21
(Absolute Coordinates)
G90
S15000
G00 Z10.0000 
G00 X0.0000  Y0.0000  
M03
G04 P3.000000
G00 Z2.9990  
G00 X-56.9972 Y38.8171 
G01 Z-1.7000 F127   
G01 X-56.9972 Y-50.1953 F254   
G01 X60.7373 Y-50.1953 
G01 X60.7373 Y38.6199 
G01 X-57.2436 Y38.6199 
G00 Z10.0000 
M05
M02
